{
  "products": [
    {
      "name": "Shirt",
      "id": "X7R2OPX",
      "price": 20,
      "description": "This white t-shirt with its simple, minimalist design it's perfect for any casual occasion. The carbon neutral design adds a modern touch to the shirt, making it perfect for anyone looking to make a statement about their environmental values. Made with soft, comfortable fabric, this t-shirt is perfect for everyday wear."
    },
    {
      "name": "Mug",
      "id": "X2G2OPZ",
      "price": 5,
      "description": "The Pantone brand is known for its high-quality products and attention to detail, and this mug is no exception. Whether you're enjoying your morning coffee or relaxing with a cup of tea, this mug is perfect for any occasion. The bold violet color is sure to catch the eye and add a pop of color to your collection."
    },
    {
      "name": "Cap",
      "id": "X3W2OPY",
      "price": 10,
      "description": "This violet cap is a stylish and practical accessory that is perfect for any casual occasion. The adjustable strap ensures a comfortable fit for anyone. Whether you're running, at the gym, or just enjoying the outdoors, this cap is the perfect finishing touch to any outfit. Durable construction and high-quality materials."
    }
  ]
}
